[gd_scene load_steps=3 format=3 uid="uid://dfpavp43622hx"]

[ext_resource type="Script" path="res://ball.cs" id="1_75kbr"]

[sub_resource type="RectangleShape2D" id="RectangleShape2D_32mmk"]
size = Vector2(16, 16)

[node name="Ball" type="CharacterBody2D"]
position = Vector2(534, 582)
collision_layer = 8
collision_mask = 7
script = ExtResource("1_75kbr")
metadata/_edit_group_ = true

[node name="ColorRect" type="ColorRect" parent="."]
offset_right = 16.0
offset_bottom = 16.0
color = Color(1, 0.105882, 1, 1)

[node name="CollisionShape2D" type="CollisionShape2D" parent="."]
position = Vector2(8, 8)
shape = SubResource("RectangleShape2D_32mmk")
