[gd_scene load_steps=3 format=3 uid="uid://dm3rjjh2jtlev"]

[ext_resource type="Script" path="res://GoodieDrop.cs" id="1_t4e20"]

[sub_resource type="RectangleShape2D" id="RectangleShape2D_jex3x"]
size = Vector2(16, 16)

[node name="GoodieDrop" type="CharacterBody2D"]
position = Vector2(484, 508)
collision_layer = 16
collision_mask = 4
script = ExtResource("1_t4e20")
metadata/_edit_group_ = true

[node name="CollisionShape2D" type="CollisionShape2D" parent="."]
shape = SubResource("RectangleShape2D_jex3x")

[node name="Sprite2D" type="Sprite2D" parent="."]
