[gd_scene load_steps=4 format=3 uid="uid://dghevna7s0t84"]

[ext_resource type="Script" path="res://Rocket.cs" id="1_h0m77"]
[ext_resource type="Texture2D" uid="uid://c271f8dftr6fm" path="res://assets/blocks/goodies/rocket.png" id="1_m6ece"]

[sub_resource type="RectangleShape2D" id="RectangleShape2D_b8ugc"]
size = Vector2(9, 15)

[node name="Rocket" type="CharacterBody2D"]
collision_layer = 0
collision_mask = 2
script = ExtResource("1_h0m77")

[node name="CollisionShape2D" type="CollisionShape2D" parent="."]
position = Vector2(-0.5, -0.5)
shape = SubResource("RectangleShape2D_b8ugc")

[node name="Sprite2D" type="Sprite2D" parent="."]
texture = ExtResource("1_m6ece")
